{
  "data": {
    "pageNum": 1,
    "pageSize": 5,
    "totalPage": 2,
    "total": 6,
    "list": [{
      "id": 9,
      "name": "电影推荐广告",
      "type": 1,
      "pic": "http://macro-oss.oss-cn-shenzhen.aliyuncs.com/mall/images/20181113/movie_ad.jpg",
      "startTime": "2018-10-31T16:00:00.000+0000",
      "endTime": "2018-11-23T16:00:00.000+0000",
      "status": 1,
      "clickCount": 0,
      "orderCount": 0,
      "url": "www.baidu.com",
      "note": "电影推荐广告",
      "sort": 100
    }, {
      "id": 10,
      "name": "汽车促销广告",
      "type": 1,
      "pic": "http://macro-oss.oss-cn-shenzhen.aliyuncs.com/mall/images/20181113/car_ad.jpg",
      "startTime": "2018-11-12T16:00:00.000+0000",
      "endTime": "2018-11-23T16:00:00.000+0000",
      "status": 1,
      "clickCount": 0,
      "orderCount": 0,
      "url": "xxx",
      "note": null,
      "sort": 99
    }, {
      "id": 11,
      "name": "汽车推荐广告",
      "type": 1,
      "pic": "http://macro-oss.oss-cn-shenzhen.aliyuncs.com/mall/images/20181113/car_ad2.jpg",
      "startTime": "2018-11-12T16:00:00.000+0000",
      "endTime": "2018-11-29T16:00:00.000+0000",
      "status": 1,
      "clickCount": 0,
      "orderCount": 0,
      "url": "xxx",
      "note": null,
      "sort": 98
    }, {
      "id": 2,
      "name": "夏季大热促销",
      "type": 1,
      "pic": "http://macro-oss.oss-cn-shenzhen.aliyuncs.com/mall/images/20180615/xiaomi.jpg",
      "startTime": "2018-11-01T06:01:37.000+0000",
      "endTime": "2018-11-15T06:01:37.000+0000",
      "status": 1,
      "clickCount": 0,
      "orderCount": 0,
      "url": null,
      "note": "夏季大热促销",
      "sort": 0
    }, {
      "id": 3,
      "name": "夏季大热促销1",
      "type": 1,
      "pic": "http://macro-oss.oss-cn-shenzhen.aliyuncs.com/mall/images/20180607/5ac1bf58Ndefaac16.jpg",
      "startTime": "2018-11-13T06:01:37.000+0000",
      "endTime": "2018-11-13T06:01:37.000+0000",
      "status": 0,
      "clickCount": 0,
      "orderCount": 0,
      "url": null,
      "note": "夏季大热促销1",
      "sort": 0
    }]
  }
}